%YAML 1.1
%TAG !u! tag:unity3d.com,2011:
--- !u!29 &1
OcclusionCullingSettings:
  m_ObjectHideFlags: 0
  serializedVersion: 2
  m_OcclusionBakeSettings:
    smallestOccluder: 5
    smallestHole: 0.25
    backfaceThreshold: 100
  m_SceneGUID: 00000000000000000000000000000000
  m_OcclusionCullingData: {fileID: 0}
--- !u!104 &2
RenderSettings:
  m_ObjectHideFlags: 0
  serializedVersion: 9
  m_Fog: 0
  m_FogColor: {r: 0.5, g: 0.5, b: 0.5, a: 1}
  m_FogMode: 3
  m_FogDensity: 0.01
  m_LinearFogStart: 0
  m_LinearFogEnd: 300
  m_AmbientSkyColor: {r: 0.212, g: 0.227, b: 0.259, a: 1}
  m_AmbientEquatorColor: {r: 0.114, g: 0.125, b: 0.133, a: 1}
  m_AmbientGroundColor: {r: 0.047, g: 0.043, b: 0.035, a: 1}
  m_AmbientIntensity: 1
  m_AmbientMode: 0
  m_SubtractiveShadowColor: {r: 0.42, g: 0.478, b: 0.627, a: 1}
  m_SkyboxMaterial: {fileID: 10304, guid: 0000000000000000f000000000000000, type: 0}
  m_HaloStrength: 0.5
  m_FlareStrength: 1
  m_FlareFadeSpeed: 3
  m_HaloTexture: {fileID: 0}
  m_SpotCookie: {fileID: 10001, guid: 0000000000000000e000000000000000, type: 0}
  m_DefaultReflectionMode: 0
  m_DefaultReflectionResolution: 128
  m_ReflectionBounces: 1
  m_ReflectionIntensity: 1
  m_CustomReflection: {fileID: 0}
  m_Sun: {fileID: 0}
  m_IndirectSpecularColor: {r: 0.4482447, g: 0.49827182, b: 0.5755813, a: 1}
  m_UseRadianceAmbientProbe: 0
--- !u!157 &3
LightmapSettings:
  m_ObjectHideFlags: 0
  serializedVersion: 11
  m_GIWorkflowMode: 1
  m_GISettings:
    serializedVersion: 2
    m_BounceScale: 1
    m_IndirectOutputScale: 1
    m_AlbedoBoost: 1
    m_EnvironmentLightingMode: 0
    m_EnableBakedLightmaps: 1
    m_EnableRealtimeLightmaps: 0
  m_LightmapEditorSettings:
    serializedVersion: 12
    m_Resolution: 2
    m_BakeResolution: 40
    m_AtlasSize: 1024
    m_AO: 0
    m_AOMaxDistance: 1
    m_CompAOExponent: 1
    m_CompAOExponentDirect: 0
    m_ExtractAmbientOcclusion: 0
    m_Padding: 2
    m_LightmapParameters: {fileID: 0}
    m_LightmapsBakeMode: 1
    m_TextureCompression: 1
    m_FinalGather: 0
    m_FinalGatherFiltering: 1
    m_FinalGatherRayCount: 256
    m_ReflectionCompression: 2
    m_MixedBakeMode: 2
    m_BakeBackend: 1
    m_PVRSampling: 1
    m_PVRDirectSampleCount: 32
    m_PVRSampleCount: 512
    m_PVRBounces: 2
    m_PVREnvironmentSampleCount: 256
    m_PVREnvironmentReferencePointCount: 2048
    m_PVRFilteringMode: 1
    m_PVRDenoiserTypeDirect: 1
    m_PVRDenoiserTypeIndirect: 1
    m_PVRDenoiserTypeAO: 1
    m_PVRFilterTypeDirect: 0
    m_PVRFilterTypeIndirect: 0
    m_PVRFilterTypeAO: 0
    m_PVREnvironmentMIS: 1
    m_PVRCulling: 1
    m_PVRFilteringGaussRadiusDirect: 1
    m_PVRFilteringGaussRadiusIndirect: 5
    m_PVRFilteringGaussRadiusAO: 2
    m_PVRFilteringAtrousPositionSigmaDirect: 0.5
    m_PVRFilteringAtrousPositionSigmaIndirect: 2
    m_PVRFilteringAtrousPositionSigmaAO: 1
    m_ExportTrainingData: 0
    m_TrainingDataDestination: TrainingData
    m_LightProbeSampleCountMultiplier: 4
  m_LightingDataAsset: {fileID: 112000000, guid: e0d6ae1c61ba2b048be2c2296028ea67,
    type: 2}
  m_UseShadowmask: 1
--- !u!196 &4
NavMeshSettings:
  serializedVersion: 2
  m_ObjectHideFlags: 0
  m_BuildSettings:
    serializedVersion: 2
    agentTypeID: 0
    agentRadius: 0.5
    agentHeight: 2
    agentSlope: 45
    agentClimb: 0.4
    ledgeDropHeight: 0
    maxJumpAcrossDistance: 0
    minRegionArea: 2
    manualCellSize: 0
    cellSize: 0.16666667
    manualTileSize: 0
    tileSize: 256
    accuratePlacement: 0
    debug:
      m_Flags: 0
  m_NavMeshData: {fileID: 23800000, guid: 5c2a54085cb5af44d9e9b26c3089d62e, type: 2}
--- !u!1 &330031713
GameObject:
  m_ObjectHideFlags: 0
  m_CorrespondingSourceObject: {fileID: 0}
  m_PrefabInstance: {fileID: 0}
  m_PrefabAsset: {fileID: 0}
  serializedVersion: 6
  m_Component:
  - component: {fileID: 330031715}
  - component: {fileID: 330031714}
  m_Layer: 0
  m_Name: Global Volume
  m_TagString: Untagged
  m_Icon: {fileID: 0}
  m_NavMeshLayer: 0
  m_StaticEditorFlags: 0
  m_IsActive: 1
--- !u!114 &330031714
MonoBehaviour:
  m_ObjectHideFlags: 0
  m_CorrespondingSourceObject: {fileID: 0}
  m_PrefabInstance: {fileID: 0}
  m_PrefabAsset: {fileID: 0}
  m_GameObject: {fileID: 330031713}
  m_Enabled: 1
  m_EditorHideFlags: 0
  m_Script: {fileID: 11500000, guid: 172515602e62fb746b5d573b38a5fe58, type: 3}
  m_Name: 
  m_EditorClassIdentifier: 
  isGlobal: 1
  priority: 0
  blendDistance: 0
  weight: 1
  sharedProfile: {fileID: 11400000, guid: afe888a1bb1aad94e9ba1fdd44c1bd51, type: 2}
--- !u!4 &330031715
Transform:
  m_ObjectHideFlags: 0
  m_CorrespondingSourceObject: {fileID: 0}
  m_PrefabInstance: {fileID: 0}
  m_PrefabAsset: {fileID: 0}
  m_GameObject: {fileID: 330031713}
  m_LocalRotation: {x: -0, y: -0, z: -0, w: 1}
  m_LocalPosition: {x: -42.699123, y: 9.087019, z: -8.696434}
  m_LocalScale: {x: 1, y: 1, z: 1}
  m_Children: []
  m_Father: {fileID: 1876613577}
  m_RootOrder: 3
  m_LocalEulerAnglesHint: {x: 0, y: 0, z: 0}
--- !u!1 &604118261
GameObject:
  m_ObjectHideFlags: 0
  m_CorrespondingSourceObject: {fileID: 0}
  m_PrefabInstance: {fileID: 0}
  m_PrefabAsset: {fileID: 0}
  serializedVersion: 6
  m_Component:
  - component: {fileID: 604118263}
  - component: {fileID: 604118262}
  m_Layer: 0
  m_Name: Inventory
  m_TagString: Untagged
  m_Icon: {fileID: 0}
  m_NavMeshLayer: 0
  m_StaticEditorFlags: 0
  m_IsActive: 1
--- !u!114 &604118262
MonoBehaviour:
  m_ObjectHideFlags: 0
  m_CorrespondingSourceObject: {fileID: 0}
  m_PrefabInstance: {fileID: 0}
  m_PrefabAsset: {fileID: 0}
  m_GameObject: {fileID: 604118261}
  m_Enabled: 1
  m_EditorHideFlags: 0
  m_Script: {fileID: 11500000, guid: dfbeedfcf45eec140b867ac25a765a53, type: 3}
  m_Name: 
  m_EditorClassIdentifier: 
  items:
  - {fileID: 11400000, guid: 35902db714c765c44a2e0516017efc42, type: 2}
  - {fileID: 0}
  cd: 0
--- !u!4 &604118263
Transform:
  m_ObjectHideFlags: 0
  m_CorrespondingSourceObject: {fileID: 0}
  m_PrefabInstance: {fileID: 0}
  m_PrefabAsset: {fileID: 0}
  m_GameObject: {fileID: 604118261}
  m_LocalRotation: {x: 0, y: 0, z: 0, w: 1}
  m_LocalPosition: {x: 12.827947, y: -9.9506035, z: 32.147644}
  m_LocalScale: {x: 1, y: 1, z: 1}
  m_Children: []
  m_Father: {fileID: 0}
  m_RootOrder: 7
  m_LocalEulerAnglesHint: {x: 0, y: 0, z: 0}
--- !u!1001 &741285683
PrefabInstance:
  m_ObjectHideFlags: 0
  serializedVersion: 2
  m_Modification:
    m_TransformParent: {fileID: 1876613577}
    m_Modifications:
    - target: {fileID: 8616113214807828330, guid: 451b98b2e1f6eea48a7c4a8bc6ca9584,
        type: 3}
      propertyPath: m_Name
      value: SpawnLocation
      objectReference: {fileID: 0}
    - target: {fileID: 8616113214807828331, guid: 451b98b2e1f6eea48a7c4a8bc6ca9584,
        type: 3}
      propertyPath: m_RootOrder
      value: 4
      objectReference: {fileID: 0}
    - target: {fileID: 8616113214807828331, guid: 451b98b2e1f6eea48a7c4a8bc6ca9584,
        type: 3}
      propertyPath: m_LocalPosition.x
      value: 0.26475525
      objectReference: {fileID: 0}
    - target: {fileID: 8616113214807828331, guid: 451b98b2e1f6eea48a7c4a8bc6ca9584,
        type: 3}
      propertyPath: m_LocalPosition.y
      value: 5.12062
      objectReference: {fileID: 0}
    - target: {fileID: 8616113214807828331, guid: 451b98b2e1f6eea48a7c4a8bc6ca9584,
        type: 3}
      propertyPath: m_LocalPosition.z
      value: -1.1979704
      objectReference: {fileID: 0}
    - target: {fileID: 8616113214807828331, guid: 451b98b2e1f6eea48a7c4a8bc6ca9584,
        type: 3}
      propertyPath: m_LocalRotation.w
      value: 1
      objectReference: {fileID: 0}
    - target: {fileID: 8616113214807828331, guid: 451b98b2e1f6eea48a7c4a8bc6ca9584,
        type: 3}
      propertyPath: m_LocalRotation.x
      value: -0
      objectReference: {fileID: 0}
    - target: {fileID: 8616113214807828331, guid: 451b98b2e1f6eea48a7c4a8bc6ca9584,
        type: 3}
      propertyPath: m_LocalRotation.y
      value: -0
      objectReference: {fileID: 0}
    - target: {fileID: 8616113214807828331, guid: 451b98b2e1f6eea48a7c4a8bc6ca9584,
        type: 3}
      propertyPath: m_LocalRotation.z
      value: -0
      objectReference: {fileID: 0}
    - target: {fileID: 8616113214807828331, guid: 451b98b2e1f6eea48a7c4a8bc6ca9584,
        type: 3}
      propertyPath: m_LocalEulerAnglesHint.x
      value: 0
      objectReference: {fileID: 0}
    - target: {fileID: 8616113214807828331, guid: 451b98b2e1f6eea48a7c4a8bc6ca9584,
        type: 3}
      propertyPath: m_LocalEulerAnglesHint.y
      value: 0
      objectReference: {fileID: 0}
    - target: {fileID: 8616113214807828331, guid: 451b98b2e1f6eea48a7c4a8bc6ca9584,
        type: 3}
      propertyPath: m_LocalEulerAnglesHint.z
      value: 0
      objectReference: {fileID: 0}
    m_RemovedComponents: []
  m_SourcePrefab: {fileID: 100100000, guid: 451b98b2e1f6eea48a7c4a8bc6ca9584, type: 3}
--- !u!4 &741285684 stripped
Transform:
  m_CorrespondingSourceObject: {fileID: 8616113214807828331, guid: 451b98b2e1f6eea48a7c4a8bc6ca9584,
    type: 3}
  m_PrefabInstance: {fileID: 741285683}
  m_PrefabAsset: {fileID: 0}
--- !u!1 &756229997
GameObject:
  m_ObjectHideFlags: 0
  m_CorrespondingSourceObject: {fileID: 0}
  m_PrefabInstance: {fileID: 0}
  m_PrefabAsset: {fileID: 0}
  serializedVersion: 6
  m_Component:
  - component: {fileID: 756229998}
  m_Layer: 0
  m_Name: '||| Enemies |||'
  m_TagString: Untagged
  m_Icon: {fileID: 0}
  m_NavMeshLayer: 0
  m_StaticEditorFlags: 0
  m_IsActive: 1
--- !u!4 &756229998
Transform:
  m_ObjectHideFlags: 0
  m_CorrespondingSourceObject: {fileID: 0}
  m_PrefabInstance: {fileID: 0}
  m_PrefabAsset: {fileID: 0}
  m_GameObject: {fileID: 756229997}
  m_LocalRotation: {x: 0, y: 0, z: 0, w: 1}
  m_LocalPosition: {x: 0, y: 0, z: 0}
  m_LocalScale: {x: 1, y: 1, z: 1}
  m_Children:
  - {fileID: 1305534076733639792}
  - {fileID: 1621780919}
  - {fileID: 949676034}
  - {fileID: 46779013995938807}
  - {fileID: 3813578375740028726}
  m_Father: {fileID: 0}
  m_RootOrder: 3
  m_LocalEulerAnglesHint: {x: 0, y: 0, z: 0}
--- !u!1001 &949676033
PrefabInstance:
  m_ObjectHideFlags: 0
  serializedVersion: 2
  m_Modification:
    m_TransformParent: {fileID: 756229998}
    m_Modifications:
    - target: {fileID: 510797997784303701, guid: 4765c039e0a07ee448b2a79ead974f38,
        type: 3}
      propertyPath: m_Name
      value: FaerieDragon
      objectReference: {fileID: 0}
    - target: {fileID: 890983466598552303, guid: 4765c039e0a07ee448b2a79ead974f38,
        type: 3}
      propertyPath: m_RootOrder
      value: 2
      objectReference: {fileID: 0}
    - target: {fileID: 890983466598552303, guid: 4765c039e0a07ee448b2a79ead974f38,
        type: 3}
      propertyPath: m_LocalPosition.x
      value: -45
      objectReference: {fileID: 0}
    - target: {fileID: 890983466598552303, guid: 4765c039e0a07ee448b2a79ead974f38,
        type: 3}
      propertyPath: m_LocalPosition.y
      value: 4
      objectReference: {fileID: 0}
    - target: {fileID: 890983466598552303, guid: 4765c039e0a07ee448b2a79ead974f38,
        type: 3}
      propertyPath: m_LocalPosition.z
      value: 0
      objectReference: {fileID: 0}
    - target: {fileID: 890983466598552303, guid: 4765c039e0a07ee448b2a79ead974f38,
        type: 3}
      propertyPath: m_LocalRotation.w
      value: 1
      objectReference: {fileID: 0}
    - target: {fileID: 890983466598552303, guid: 4765c039e0a07ee448b2a79ead974f38,
        type: 3}
      propertyPath: m_LocalRotation.x
      value: 0
      objectReference: {fileID: 0}
    - target: {fileID: 890983466598552303, guid: 4765c039e0a07ee448b2a79ead974f38,
        type: 3}
      propertyPath: m_LocalRotation.y
      value: 0
      objectReference: {fileID: 0}
    - target: {fileID: 890983466598552303, guid: 4765c039e0a07ee448b2a79ead974f38,
        type: 3}
      propertyPath: m_LocalRotation.z
      value: 0
      objectReference: {fileID: 0}
    - target: {fileID: 890983466598552303, guid: 4765c039e0a07ee448b2a79ead974f38,
        type: 3}
      propertyPath: m_LocalEulerAnglesHint.x
      value: 0
      objectReference: {fileID: 0}
    - target: {fileID: 890983466598552303, guid: 4765c039e0a07ee448b2a79ead974f38,
        type: 3}
      propertyPath: m_LocalEulerAnglesHint.y
      value: 0
      objectReference: {fileID: 0}
    - target: {fileID: 890983466598552303, guid: 4765c039e0a07ee448b2a79ead974f38,
        type: 3}
      propertyPath: m_LocalEulerAnglesHint.z
      value: 0
      objectReference: {fileID: 0}
    - target: {fileID: 7876452019891539851, guid: 4765c039e0a07ee448b2a79ead974f38,
        type: 3}
      propertyPath: m_Materials.Array.data[0]
      value: 
      objectReference: {fileID: 0}
    - target: {fileID: 7876452019891539851, guid: 4765c039e0a07ee448b2a79ead974f38,
        type: 3}
      propertyPath: m_Materials.Array.data[1]
      value: 
      objectReference: {fileID: 0}
    - target: {fileID: 7876452019891539851, guid: 4765c039e0a07ee448b2a79ead974f38,
        type: 3}
      propertyPath: m_Materials.Array.data[2]
      value: 
      objectReference: {fileID: 0}
    m_RemovedComponents: []
  m_SourcePrefab: {fileID: 100100000, guid: 4765c039e0a07ee448b2a79ead974f38, type: 3}
--- !u!4 &949676034 stripped
Transform:
  m_CorrespondingSourceObject: {fileID: 890983466598552303, guid: 4765c039e0a07ee448b2a79ead974f38,
    type: 3}
  m_PrefabInstance: {fileID: 949676033}
  m_PrefabAsset: {fileID: 0}
--- !u!1001 &1087793404
PrefabInstance:
  m_ObjectHideFlags: 0
  serializedVersion: 2
  m_Modification:
    m_TransformParent: {fileID: 0}
    m_Modifications:
    - target: {fileID: 7722424447072953813, guid: 17a9ee40a8d0c774885d6c7303af9a5f,
        type: 3}
      propertyPath: m_RootOrder
      value: 4
      objectReference: {fileID: 0}
    - target: {fileID: 7722424447072953813, guid: 17a9ee40a8d0c774885d6c7303af9a5f,
        type: 3}
      propertyPath: m_LocalPosition.x
      value: 0.26475525
      objectReference: {fileID: 0}
    - target: {fileID: 7722424447072953813, guid: 17a9ee40a8d0c774885d6c7303af9a5f,
        type: 3}
      propertyPath: m_LocalPosition.y
      value: 3.1206198
      objectReference: {fileID: 0}
    - target: {fileID: 7722424447072953813, guid: 17a9ee40a8d0c774885d6c7303af9a5f,
        type: 3}
      propertyPath: m_LocalPosition.z
      value: -11.19797
      objectReference: {fileID: 0}
    - target: {fileID: 7722424447072953813, guid: 17a9ee40a8d0c774885d6c7303af9a5f,
        type: 3}
      propertyPath: m_LocalRotation.w
      value: 1
      objectReference: {fileID: 0}
    - target: {fileID: 7722424447072953813, guid: 17a9ee40a8d0c774885d6c7303af9a5f,
        type: 3}
      propertyPath: m_LocalRotation.x
      value: -0
      objectReference: {fileID: 0}
    - target: {fileID: 7722424447072953813, guid: 17a9ee40a8d0c774885d6c7303af9a5f,
        type: 3}
      propertyPath: m_LocalRotation.y
      value: -0
      objectReference: {fileID: 0}
    - target: {fileID: 7722424447072953813, guid: 17a9ee40a8d0c774885d6c7303af9a5f,
        type: 3}
      propertyPath: m_LocalRotation.z
      value: -0
      objectReference: {fileID: 0}
    - target: {fileID: 7722424447072953813, guid: 17a9ee40a8d0c774885d6c7303af9a5f,
        type: 3}
      propertyPath: m_LocalEulerAnglesHint.x
      value: 0
      objectReference: {fileID: 0}
    - target: {fileID: 7722424447072953813, guid: 17a9ee40a8d0c774885d6c7303af9a5f,
        type: 3}
      propertyPath: m_LocalEulerAnglesHint.y
      value: 0
      objectReference: {fileID: 0}
    - target: {fileID: 7722424447072953813, guid: 17a9ee40a8d0c774885d6c7303af9a5f,
        type: 3}
      propertyPath: m_LocalEulerAnglesHint.z
      value: 0
      objectReference: {fileID: 0}
    - target: {fileID: 7722424447072953816, guid: 17a9ee40a8d0c774885d6c7303af9a5f,
        type: 3}
      propertyPath: m_Name
      value: ___ MainCamera ___
      objectReference: {fileID: 0}
    m_RemovedComponents: []
  m_SourcePrefab: {fileID: 100100000, guid: 17a9ee40a8d0c774885d6c7303af9a5f, type: 3}
--- !u!1 &1105644830
GameObject:
  m_ObjectHideFlags: 0
  m_CorrespondingSourceObject: {fileID: 0}
  m_PrefabInstance: {fileID: 0}
  m_PrefabAsset: {fileID: 0}
  serializedVersion: 6
  m_Component:
  - component: {fileID: 1105644832}
  - component: {fileID: 1105644831}
  m_Layer: 0
  m_Name: Directional Light
  m_TagString: Untagged
  m_Icon: {fileID: 0}
  m_NavMeshLayer: 0
  m_StaticEditorFlags: 0
  m_IsActive: 1
--- !u!108 &1105644831
Light:
  m_ObjectHideFlags: 0
  m_CorrespondingSourceObject: {fileID: 0}
  m_PrefabInstance: {fileID: 0}
  m_PrefabAsset: {fileID: 0}
  m_GameObject: {fileID: 1105644830}
  m_Enabled: 1
  serializedVersion: 10
  m_Type: 1
  m_Shape: 0
  m_Color: {r: 1, g: 0.95686275, b: 0.8392157, a: 1}
  m_Intensity: 1
  m_Range: 10
  m_SpotAngle: 30
  m_InnerSpotAngle: 21.80208
  m_CookieSize: 10
  m_Shadows:
    m_Type: 2
    m_Resolution: -1
    m_CustomResolution: -1
    m_Strength: 1
    m_Bias: 0.05
    m_NormalBias: 0.4
    m_NearPlane: 0.2
    m_CullingMatrixOverride:
      e00: 1
      e01: 0
      e02: 0
      e03: 0
      e10: 0
      e11: 1
      e12: 0
      e13: 0
      e20: 0
      e21: 0
      e22: 1
      e23: 0
      e30: 0
      e31: 0
      e32: 0
      e33: 1
    m_UseCullingMatrixOverride: 0
  m_Cookie: {fileID: 0}
  m_DrawHalo: 0
  m_Flare: {fileID: 0}
  m_RenderMode: 0
  m_CullingMask:
    serializedVersion: 2
    m_Bits: 4294967295
  m_RenderingLayerMask: 1
  m_Lightmapping: 4
  m_LightShadowCasterMode: 0
  m_AreaSize: {x: 1, y: 1}
  m_BounceIntensity: 1
  m_ColorTemperature: 6570
  m_UseColorTemperature: 0
  m_BoundingSphereOverride: {x: 0, y: 0, z: 0, w: 0}
  m_UseBoundingSphereOverride: 0
  m_ShadowRadius: 0
  m_ShadowAngle: 0
--- !u!4 &1105644832
Transform:
  m_ObjectHideFlags: 0
  m_CorrespondingSourceObject: {fileID: 0}
  m_PrefabInstance: {fileID: 0}
  m_PrefabAsset: {fileID: 0}
  m_GameObject: {fileID: 1105644830}
  m_LocalRotation: {x: 0.38268343, y: 0, z: 0, w: 0.92387956}
  m_LocalPosition: {x: 0, y: 20, z: 0}
  m_LocalScale: {x: 1, y: 1, z: 1}
  m_Children: []
  m_Father: {fileID: 1876613577}
  m_RootOrder: 0
  m_LocalEulerAnglesHint: {x: 45, y: 0, z: 0}
--- !u!1001 &1106670870
PrefabInstance:
  m_ObjectHideFlags: 0
  serializedVersion: 2
  m_Modification:
    m_TransformParent: {fileID: 756229998}
    m_Modifications:
    - target: {fileID: 8569292619521038693, guid: 4fcf18c6e3abdf24290ad344171a2272,
        type: 3}
      propertyPath: m_RootOrder
      value: 1
      objectReference: {fileID: 0}
    - target: {fileID: 8569292619521038693, guid: 4fcf18c6e3abdf24290ad344171a2272,
        type: 3}
      propertyPath: m_LocalPosition.x
      value: -20
      objectReference: {fileID: 0}
    - target: {fileID: 8569292619521038693, guid: 4fcf18c6e3abdf24290ad344171a2272,
        type: 3}
      propertyPath: m_LocalPosition.y
      value: 1
      objectReference: {fileID: 0}
    - target: {fileID: 8569292619521038693, guid: 4fcf18c6e3abdf24290ad344171a2272,
        type: 3}
      propertyPath: m_LocalPosition.z
      value: -40
      objectReference: {fileID: 0}
    - target: {fileID: 8569292619521038693, guid: 4fcf18c6e3abdf24290ad344171a2272,
        type: 3}
      propertyPath: m_LocalRotation.w
      value: 1
      objectReference: {fileID: 0}
    - target: {fileID: 8569292619521038693, guid: 4fcf18c6e3abdf24290ad344171a2272,
        type: 3}
      propertyPath: m_LocalRotation.x
      value: -0
      objectReference: {fileID: 0}
    - target: {fileID: 8569292619521038693, guid: 4fcf18c6e3abdf24290ad344171a2272,
        type: 3}
      propertyPath: m_LocalRotation.y
      value: -0
      objectReference: {fileID: 0}
    - target: {fileID: 8569292619521038693, guid: 4fcf18c6e3abdf24290ad344171a2272,
        type: 3}
      propertyPath: m_LocalRotation.z
      value: -0
      objectReference: {fileID: 0}
    - target: {fileID: 8569292619521038693, guid: 4fcf18c6e3abdf24290ad344171a2272,
        type: 3}
      propertyPath: m_LocalEulerAnglesHint.x
      value: 0
      objectReference: {fileID: 0}
    - target: {fileID: 8569292619521038693, guid: 4fcf18c6e3abdf24290ad344171a2272,
        type: 3}
      propertyPath: m_LocalEulerAnglesHint.y
      value: 0
      objectReference: {fileID: 0}
    - target: {fileID: 8569292619521038693, guid: 4fcf18c6e3abdf24290ad344171a2272,
        type: 3}
      propertyPath: m_LocalEulerAnglesHint.z
      value: 0
      objectReference: {fileID: 0}
    - target: {fileID: 9054467881724396511, guid: 4fcf18c6e3abdf24290ad344171a2272,
        type: 3}
      propertyPath: m_Name
      value: BrugonEnemy
      objectReference: {fileID: 0}
    m_RemovedComponents: []
  m_SourcePrefab: {fileID: 100100000, guid: 4fcf18c6e3abdf24290ad344171a2272, type: 3}
--- !u!1 &1171662901
GameObject:
  m_ObjectHideFlags: 0
  m_CorrespondingSourceObject: {fileID: 0}
  m_PrefabInstance: {fileID: 0}
  m_PrefabAsset: {fileID: 0}
  serializedVersion: 6
  m_Component:
  - component: {fileID: 1171662907}
  - component: {fileID: 1171662906}
  - component: {fileID: 1171662905}
  - component: {fileID: 1171662904}
  - component: {fileID: 1171662903}
  - component: {fileID: 1171662902}
  m_Layer: 0
  m_Name: EventSystem
  m_TagString: Untagged
  m_Icon: {fileID: 0}
  m_NavMeshLayer: 0
  m_StaticEditorFlags: 0
  m_IsActive: 1
--- !u!114 &1171662902
MonoBehaviour:
  m_ObjectHideFlags: 0
  m_CorrespondingSourceObject: {fileID: 0}
  m_PrefabInstance: {fileID: 0}
  m_PrefabAsset: {fileID: 0}
  m_GameObject: {fileID: 1171662901}
  m_Enabled: 1
  m_EditorHideFlags: 0
  m_Script: {fileID: 11500000, guid: 92609044613ea754c9e5d683c02e9c02, type: 3}
  m_Name: 
  m_EditorClassIdentifier: 
--- !u!114 &1171662903
MonoBehaviour:
  m_ObjectHideFlags: 0
  m_CorrespondingSourceObject: {fileID: 0}
  m_PrefabInstance: {fileID: 0}
  m_PrefabAsset: {fileID: 0}
  m_GameObject: {fileID: 1171662901}
  m_Enabled: 1
  m_EditorHideFlags: 0
  m_Script: {fileID: 11500000, guid: c2ab08dd3aa1c364787a9b84bd57e995, type: 3}
  m_Name: 
  m_EditorClassIdentifier: 
--- !u!114 &1171662904
MonoBehaviour:
  m_ObjectHideFlags: 0
  m_CorrespondingSourceObject: {fileID: 0}
  m_PrefabInstance: {fileID: 0}
  m_PrefabAsset: {fileID: 0}
  m_GameObject: {fileID: 1171662901}
  m_Enabled: 1
  m_EditorHideFlags: 0
  m_Script: {fileID: 11500000, guid: 9eb127267bb164449b88d8b28a2ca7d0, type: 3}
  m_Name: 
  m_EditorClassIdentifier: 
--- !u!114 &1171662905
MonoBehaviour:
  m_ObjectHideFlags: 0
  m_CorrespondingSourceObject: {fileID: 0}
  m_PrefabInstance: {fileID: 0}
  m_PrefabAsset: {fileID: 0}
  m_GameObject: {fileID: 1171662901}
  m_Enabled: 1
  m_EditorHideFlags: 0
  m_Script: {fileID: 11500000, guid: 4f231c4fb786f3946a6b90b886c48677, type: 3}
  m_Name: 
  m_EditorClassIdentifier: 
  m_HorizontalAxis: Horizontal
  m_VerticalAxis: Vertical
  m_SubmitButton: Submit
  m_CancelButton: Cancel
  m_InputActionsPerSecond: 10
  m_RepeatDelay: 0.5
  m_ForceModuleActive: 0
--- !u!114 &1171662906
MonoBehaviour:
  m_ObjectHideFlags: 0
  m_CorrespondingSourceObject: {fileID: 0}
  m_PrefabInstance: {fileID: 0}
  m_PrefabAsset: {fileID: 0}
  m_GameObject: {fileID: 1171662901}
  m_Enabled: 1
  m_EditorHideFlags: 0
  m_Script: {fileID: 11500000, guid: 76c392e42b5098c458856cdf6ecaaaa1, type: 3}
  m_Name: 
  m_EditorClassIdentifier: 
  m_FirstSelected: {fileID: 0}
  m_sendNavigationEvents: 1
  m_DragThreshold: 10
--- !u!4 &1171662907
Transform:
  m_ObjectHideFlags: 0
  m_CorrespondingSourceObject: {fileID: 0}
  m_PrefabInstance: {fileID: 0}
  m_PrefabAsset: {fileID: 0}
  m_GameObject: {fileID: 1171662901}
  m_LocalRotation: {x: 0, y: 0, z: 0, w: 1}
  m_LocalPosition: {x: 0, y: 0, z: 0}
  m_LocalScale: {x: 1, y: 1, z: 1}
  m_Children: []
  m_Father: {fileID: 0}
  m_RootOrder: 0
  m_LocalEulerAnglesHint: {x: 0, y: 0, z: 0}
--- !u!1 &1224061333
GameObject:
  m_ObjectHideFlags: 0
  m_CorrespondingSourceObject: {fileID: 0}
  m_PrefabInstance: {fileID: 0}
  m_PrefabAsset: {fileID: 0}
  serializedVersion: 6
  m_Component:
  - component: {fileID: 1224061336}
  - component: {fileID: 1224061335}
  - component: {fileID: 1224061334}
  - component: {fileID: 1224061337}
  m_Layer: 0
  m_Name: Terrain01
  m_TagString: Tile
  m_Icon: {fileID: 0}
  m_NavMeshLayer: 0
  m_StaticEditorFlags: 40
  m_IsActive: 1
--- !u!23 &1224061334
MeshRenderer:
  m_ObjectHideFlags: 0
  m_CorrespondingSourceObject: {fileID: 0}
  m_PrefabInstance: {fileID: 0}
  m_PrefabAsset: {fileID: 0}
  m_GameObject: {fileID: 1224061333}
  m_Enabled: 1
  m_CastShadows: 1
  m_ReceiveShadows: 1
  m_DynamicOccludee: 1
  m_MotionVectors: 1
  m_LightProbeUsage: 1
  m_ReflectionProbeUsage: 1
  m_RayTracingMode: 2
  m_RenderingLayerMask: 1
  m_RendererPriority: 0
  m_Materials:
  - {fileID: 2100000, guid: c8f6db7a57ecb8b4497a4ab30b2505b6, type: 2}
  m_StaticBatchInfo:
    firstSubMesh: 0
    subMeshCount: 0
  m_StaticBatchRoot: {fileID: 0}
  m_ProbeAnchor: {fileID: 0}
  m_LightProbeVolumeOverride: {fileID: 0}
  m_ScaleInLightmap: 1
  m_ReceiveGI: 1
  m_PreserveUVs: 0
  m_IgnoreNormalsForChartDetection: 0
  m_ImportantGI: 0
  m_StitchLightmapSeams: 1
  m_SelectedEditorRenderState: 3
  m_MinimumChartSize: 4
  m_AutoUVMaxDistance: 0.5
  m_AutoUVMaxAngle: 89
  m_LightmapParameters: {fileID: 0}
  m_SortingLayerID: 0
  m_SortingLayer: 0
  m_SortingOrder: 0
--- !u!33 &1224061335
MeshFilter:
  m_ObjectHideFlags: 0
  m_CorrespondingSourceObject: {fileID: 0}
  m_PrefabInstance: {fileID: 0}
  m_PrefabAsset: {fileID: 0}
  m_GameObject: {fileID: 1224061333}
  m_Mesh: {fileID: 10206, guid: 0000000000000000e000000000000000, type: 0}
--- !u!4 &1224061336
Transform:
  m_ObjectHideFlags: 0
  m_CorrespondingSourceObject: {fileID: 0}
  m_PrefabInstance: {fileID: 0}
  m_PrefabAsset: {fileID: 0}
  m_GameObject: {fileID: 1224061333}
  m_LocalRotation: {x: -0, y: -0, z: -0, w: 1}
  m_LocalPosition: {x: 0, y: 2, z: 0}
  m_LocalScale: {x: 150, y: 0.5, z: 150}
  m_Children: []
  m_Father: {fileID: 1493071626}
  m_RootOrder: 0
  m_LocalEulerAnglesHint: {x: 0, y: 0, z: 0}
--- !u!64 &1224061337
MeshCollider:
  m_ObjectHideFlags: 0
  m_CorrespondingSourceObject: {fileID: 0}
  m_PrefabInstance: {fileID: 0}
  m_PrefabAsset: {fileID: 0}
  m_GameObject: {fileID: 1224061333}
  m_Material: {fileID: 0}
  m_IsTrigger: 0
  m_Enabled: 1
  serializedVersion: 4
  m_Convex: 0
  m_CookingOptions: 30
  m_Mesh: {fileID: 10206, guid: 0000000000000000e000000000000000, type: 0}
--- !u!1001 &1288703303
PrefabInstance:
  m_ObjectHideFlags: 0
  serializedVersion: 2
  m_Modification:
    m_TransformParent: {fileID: 0}
    m_Modifications:
    - target: {fileID: 1144610038288411601, guid: 8ec048ee433563e42b96f07ad0e6d591,
        type: 3}
      propertyPath: m_Name
      value: ___ PlayerManager ___
      objectReference: {fileID: 0}
    - target: {fileID: 1144610038288411614, guid: 8ec048ee433563e42b96f07ad0e6d591,
        type: 3}
      propertyPath: m_RootOrder
      value: 5
      objectReference: {fileID: 0}
    - target: {fileID: 1144610038288411614, guid: 8ec048ee433563e42b96f07ad0e6d591,
        type: 3}
      propertyPath: m_LocalPosition.x
      value: 0
      objectReference: {fileID: 0}
    - target: {fileID: 1144610038288411614, guid: 8ec048ee433563e42b96f07ad0e6d591,
        type: 3}
      propertyPath: m_LocalPosition.y
      value: 0
      objectReference: {fileID: 0}
    - target: {fileID: 1144610038288411614, guid: 8ec048ee433563e42b96f07ad0e6d591,
        type: 3}
      propertyPath: m_LocalPosition.z
      value: 0
      objectReference: {fileID: 0}
    - target: {fileID: 1144610038288411614, guid: 8ec048ee433563e42b96f07ad0e6d591,
        type: 3}
      propertyPath: m_LocalRotation.w
      value: 1
      objectReference: {fileID: 0}
    - target: {fileID: 1144610038288411614, guid: 8ec048ee433563e42b96f07ad0e6d591,
        type: 3}
      propertyPath: m_LocalRotation.x
      value: 0
      objectReference: {fileID: 0}
    - target: {fileID: 1144610038288411614, guid: 8ec048ee433563e42b96f07ad0e6d591,
        type: 3}
      propertyPath: m_LocalRotation.y
      value: 0
      objectReference: {fileID: 0}
    - target: {fileID: 1144610038288411614, guid: 8ec048ee433563e42b96f07ad0e6d591,
        type: 3}
      propertyPath: m_LocalRotation.z
      value: 0
      objectReference: {fileID: 0}
    - target: {fileID: 1144610038288411614, guid: 8ec048ee433563e42b96f07ad0e6d591,
        type: 3}
      propertyPath: m_LocalEulerAnglesHint.x
      value: 0
      objectReference: {fileID: 0}
    - target: {fileID: 1144610038288411614, guid: 8ec048ee433563e42b96f07ad0e6d591,
        type: 3}
      propertyPath: m_LocalEulerAnglesHint.y
      value: 0
      objectReference: {fileID: 0}
    - target: {fileID: 1144610038288411614, guid: 8ec048ee433563e42b96f07ad0e6d591,
        type: 3}
      propertyPath: m_LocalEulerAnglesHint.z
      value: 0
      objectReference: {fileID: 0}
    m_RemovedComponents: []
  m_SourcePrefab: {fileID: 100100000, guid: 8ec048ee433563e42b96f07ad0e6d591, type: 3}
--- !u!1001 &1395622909
PrefabInstance:
  m_ObjectHideFlags: 0
  serializedVersion: 2
  m_Modification:
    m_TransformParent: {fileID: 0}
    m_Modifications:
    - target: {fileID: 3007044956710549089, guid: 67f1df5d674a3c64d939a6d0ac8d2880,
        type: 3}
      propertyPath: m_AnchorMax.x
      value: 0
      objectReference: {fileID: 0}
    - target: {fileID: 3007044956710549089, guid: 67f1df5d674a3c64d939a6d0ac8d2880,
        type: 3}
      propertyPath: m_AnchorMax.y
      value: 0
      objectReference: {fileID: 0}
    - target: {fileID: 6942819552243597304, guid: 67f1df5d674a3c64d939a6d0ac8d2880,
        type: 3}
      propertyPath: m_IsActive
      value: 1
      objectReference: {fileID: 0}
    - target: {fileID: 6942819552730362862, guid: 67f1df5d674a3c64d939a6d0ac8d2880,
        type: 3}
      propertyPath: m_AnchorMax.x
      value: 0
      objectReference: {fileID: 0}
    - target: {fileID: 6942819552730362862, guid: 67f1df5d674a3c64d939a6d0ac8d2880,
        type: 3}
      propertyPath: m_AnchorMax.y
      value: 0
      objectReference: {fileID: 0}
    - target: {fileID: 7475509819990443819, guid: 67f1df5d674a3c64d939a6d0ac8d2880,
        type: 3}
      propertyPath: m_AnchorMax.y
      value: 0
      objectReference: {fileID: 0}
    - target: {fileID: 7475509820093599464, guid: 67f1df5d674a3c64d939a6d0ac8d2880,
        type: 3}
      propertyPath: m_AnchorMax.y
      value: 0
      objectReference: {fileID: 0}
    - target: {fileID: 7475509820275810956, guid: 67f1df5d674a3c64d939a6d0ac8d2880,
        type: 3}
      propertyPath: m_IsActive
      value: 0
      objectReference: {fileID: 0}
    - target: {fileID: 7475509820275810957, guid: 67f1df5d674a3c64d939a6d0ac8d2880,
        type: 3}
      propertyPath: m_AnchoredPosition.x
      value: -1
      objectReference: {fileID: 0}
    - target: {fileID: 7475509820275810957, guid: 67f1df5d674a3c64d939a6d0ac8d2880,
        type: 3}
      propertyPath: m_AnchoredPosition.y
      value: 5.5
      objectReference: {fileID: 0}
    - target: {fileID: 7475509820668688529, guid: 67f1df5d674a3c64d939a6d0ac8d2880,
        type: 3}
      propertyPath: m_AnchorMax.y
      value: 0
      objectReference: {fileID: 0}
    - target: {fileID: 7475509820880812929, guid: 67f1df5d674a3c64d939a6d0ac8d2880,
        type: 3}
      propertyPath: m_IsActive
      value: 0
      objectReference: {fileID: 0}
    - target: {fileID: 7475509821271056264, guid: 67f1df5d674a3c64d939a6d0ac8d2880,
        type: 3}
      propertyPath: m_IsActive
      value: 1
      objectReference: {fileID: 0}
    - target: {fileID: 7475509821390605862, guid: 67f1df5d674a3c64d939a6d0ac8d2880,
        type: 3}
      propertyPath: m_AnchorMax.y
      value: 0
      objectReference: {fileID: 0}
    - target: {fileID: 7475509821635827700, guid: 67f1df5d674a3c64d939a6d0ac8d2880,
        type: 3}
      propertyPath: m_AnchorMax.y
      value: 0
      objectReference: {fileID: 0}
    - target: {fileID: 7475509821841204814, guid: 67f1df5d674a3c64d939a6d0ac8d2880,
        type: 3}
      propertyPath: m_AnchorMax.y
      value: 0
      objectReference: {fileID: 0}
    - target: {fileID: 7475509821895631108, guid: 67f1df5d674a3c64d939a6d0ac8d2880,
        type: 3}
      propertyPath: m_Pivot.x
      value: 0
      objectReference: {fileID: 0}
    - target: {fileID: 7475509821895631108, guid: 67f1df5d674a3c64d939a6d0ac8d2880,
        type: 3}
      propertyPath: m_Pivot.y
      value: 0
      objectReference: {fileID: 0}
    - target: {fileID: 7475509821895631108, guid: 67f1df5d674a3c64d939a6d0ac8d2880,
        type: 3}
      propertyPath: m_RootOrder
      value: 6
      objectReference: {fileID: 0}
    - target: {fileID: 7475509821895631108, guid: 67f1df5d674a3c64d939a6d0ac8d2880,
        type: 3}
      propertyPath: m_AnchorMax.x
      value: 0
      objectReference: {fileID: 0}
    - target: {fileID: 7475509821895631108, guid: 67f1df5d674a3c64d939a6d0ac8d2880,
        type: 3}
      propertyPath: m_AnchorMax.y
      value: 0
      objectReference: {fileID: 0}
    - target: {fileID: 7475509821895631108, guid: 67f1df5d674a3c64d939a6d0ac8d2880,
        type: 3}
      propertyPath: m_AnchorMin.x
      value: 0
      objectReference: {fileID: 0}
    - target: {fileID: 7475509821895631108, guid: 67f1df5d674a3c64d939a6d0ac8d2880,
        type: 3}
      propertyPath: m_AnchorMin.y
      value: 0
      objectReference: {fileID: 0}
    - target: {fileID: 7475509821895631108, guid: 67f1df5d674a3c64d939a6d0ac8d2880,
        type: 3}
      propertyPath: m_SizeDelta.x
      value: 0
      objectReference: {fileID: 0}
    - target: {fileID: 7475509821895631108, guid: 67f1df5d674a3c64d939a6d0ac8d2880,
        type: 3}
      propertyPath: m_SizeDelta.y
      value: 0
      objectReference: {fileID: 0}
    - target: {fileID: 7475509821895631108, guid: 67f1df5d674a3c64d939a6d0ac8d2880,
        type: 3}
      propertyPath: m_LocalPosition.x
      value: 0
      objectReference: {fileID: 0}
    - target: {fileID: 7475509821895631108, guid: 67f1df5d674a3c64d939a6d0ac8d2880,
        type: 3}
      propertyPath: m_LocalPosition.y
      value: 0
      objectReference: {fileID: 0}
    - target: {fileID: 7475509821895631108, guid: 67f1df5d674a3c64d939a6d0ac8d2880,
        type: 3}
      propertyPath: m_LocalPosition.z
      value: 0
      objectReference: {fileID: 0}
    - target: {fileID: 7475509821895631108, guid: 67f1df5d674a3c64d939a6d0ac8d2880,
        type: 3}
      propertyPath: m_LocalRotation.w
      value: 1
      objectReference: {fileID: 0}
    - target: {fileID: 7475509821895631108, guid: 67f1df5d674a3c64d939a6d0ac8d2880,
        type: 3}
      propertyPath: m_LocalRotation.x
      value: 0
      objectReference: {fileID: 0}
    - target: {fileID: 7475509821895631108, guid: 67f1df5d674a3c64d939a6d0ac8d2880,
        type: 3}
      propertyPath: m_LocalRotation.y
      value: 0
      objectReference: {fileID: 0}
    - target: {fileID: 7475509821895631108, guid: 67f1df5d674a3c64d939a6d0ac8d2880,
        type: 3}
      propertyPath: m_LocalRotation.z
      value: 0
      objectReference: {fileID: 0}
    - target: {fileID: 7475509821895631108, guid: 67f1df5d674a3c64d939a6d0ac8d2880,
        type: 3}
      propertyPath: m_AnchoredPosition.x
      value: 0
      objectReference: {fileID: 0}
    - target: {fileID: 7475509821895631108, guid: 67f1df5d674a3c64d939a6d0ac8d2880,
        type: 3}
      propertyPath: m_AnchoredPosition.y
      value: 0
      objectReference: {fileID: 0}
    - target: {fileID: 7475509821895631108, guid: 67f1df5d674a3c64d939a6d0ac8d2880,
        type: 3}
      propertyPath: m_LocalEulerAnglesHint.x
      value: 0
      objectReference: {fileID: 0}
    - target: {fileID: 7475509821895631108, guid: 67f1df5d674a3c64d939a6d0ac8d2880,
        type: 3}
      propertyPath: m_LocalEulerAnglesHint.y
      value: 0
      objectReference: {fileID: 0}
    - target: {fileID: 7475509821895631108, guid: 67f1df5d674a3c64d939a6d0ac8d2880,
        type: 3}
      propertyPath: m_LocalEulerAnglesHint.z
      value: 0
      objectReference: {fileID: 0}
    - target: {fileID: 7475509821895631135, guid: 67f1df5d674a3c64d939a6d0ac8d2880,
        type: 3}
      propertyPath: m_Name
      value: Canvas
      objectReference: {fileID: 0}
    m_RemovedComponents: []
  m_SourcePrefab: {fileID: 100100000, guid: 67f1df5d674a3c64d939a6d0ac8d2880, type: 3}
--- !u!1 &1493071625
GameObject:
  m_ObjectHideFlags: 0
  m_CorrespondingSourceObject: {fileID: 0}
  m_PrefabInstance: {fileID: 0}
  m_PrefabAsset: {fileID: 0}
  serializedVersion: 6
  m_Component:
  - component: {fileID: 1493071626}
  - component: {fileID: 1493071627}
  m_Layer: 0
  m_Name: Terrain
  m_TagString: Untagged
  m_Icon: {fileID: 0}
  m_NavMeshLayer: 0
  m_StaticEditorFlags: 0
  m_IsActive: 1
--- !u!4 &1493071626
Transform:
  m_ObjectHideFlags: 0
  m_CorrespondingSourceObject: {fileID: 0}
  m_PrefabInstance: {fileID: 0}
  m_PrefabAsset: {fileID: 0}
  m_GameObject: {fileID: 1493071625}
  m_LocalRotation: {x: 0, y: 0, z: 0, w: 1}
  m_LocalPosition: {x: 0, y: 0, z: 0}
  m_LocalScale: {x: 1, y: 1, z: 1}
  m_Children:
  - {fileID: 1224061336}
  - {fileID: 1502880894}
  m_Father: {fileID: 1876613577}
  m_RootOrder: 1
  m_LocalEulerAnglesHint: {x: 0, y: 0, z: 0}
--- !u!82 &1493071627
AudioSource:
  m_ObjectHideFlags: 0
  m_CorrespondingSourceObject: {fileID: 0}
  m_PrefabInstance: {fileID: 0}
  m_PrefabAsset: {fileID: 0}
  m_GameObject: {fileID: 1493071625}
  m_Enabled: 1
  serializedVersion: 4
  OutputAudioMixerGroup: {fileID: 9040216009501406669, guid: ebb3a4fcaa5889f44903c26f7b1c0159,
    type: 2}
  m_audioClip: {fileID: 8300000, guid: ec8c98d029f83e1458ade3eea515fb72, type: 3}
  m_PlayOnAwake: 1
  m_Volume: 0.3
  m_Pitch: 1
  Loop: 1
  Mute: 0
  Spatialize: 0
  SpatializePostEffects: 0
  Priority: 128
  DopplerLevel: 1
  MinDistance: 1
  MaxDistance: 500
  Pan2D: 0
  rolloffMode: 0
  BypassEffects: 0
  BypassListenerEffects: 0
  BypassReverbZones: 0
  rolloffCustomCurve:
    serializedVersion: 2
    m_Curve:
    - serializedVersion: 3
      time: 0
      value: 1
      inSlope: 0
      outSlope: 0
      tangentMode: 0
      weightedMode: 0
      inWeight: 0.33333334
      outWeight: 0.33333334
    - serializedVersion: 3
      time: 1
      value: 0
      inSlope: 0
      outSlope: 0
      tangentMode: 0
      weightedMode: 0
      inWeight: 0.33333334
      outWeight: 0.33333334
    m_PreInfinity: 2
    m_PostInfinity: 2
    m_RotationOrder: 4
  panLevelCustomCurve:
    serializedVersion: 2
    m_Curve:
    - serializedVersion: 3
      time: 0
      value: 0
      inSlope: 0
      outSlope: 0
      tangentMode: 0
      weightedMode: 0
      inWeight: 0.33333334
      outWeight: 0.33333334
    m_PreInfinity: 2
    m_PostInfinity: 2
    m_RotationOrder: 4
  spreadCustomCurve:
    serializedVersion: 2
    m_Curve:
    - serializedVersion: 3
      time: 0
      value: 0
      inSlope: 0
      outSlope: 0
      tangentMode: 0
      weightedMode: 0
      inWeight: 0.33333334
      outWeight: 0.33333334
    m_PreInfinity: 2
    m_PostInfinity: 2
    m_RotationOrder: 4
  reverbZoneMixCustomCurve:
    serializedVersion: 2
    m_Curve:
    - serializedVersion: 3
      time: 0
      value: 1
      inSlope: 0
      outSlope: 0
      tangentMode: 0
      weightedMode: 0
      inWeight: 0.33333334
      outWeight: 0.33333334
    m_PreInfinity: 2
    m_PostInfinity: 2
    m_RotationOrder: 4
--- !u!1 &1502880893
GameObject:
  m_ObjectHideFlags: 0
  m_CorrespondingSourceObject: {fileID: 0}
  m_PrefabInstance: {fileID: 0}
  m_PrefabAsset: {fileID: 0}
  serializedVersion: 6
  m_Component:
  - component: {fileID: 1502880894}
  - component: {fileID: 1502880897}
  - component: {fileID: 1502880896}
  - component: {fileID: 1502880895}
  m_Layer: 0
  m_Name: Terrain02
  m_TagString: Grass
  m_Icon: {fileID: 0}
  m_NavMeshLayer: 0
  m_StaticEditorFlags: 8
  m_IsActive: 1
--- !u!4 &1502880894
Transform:
  m_ObjectHideFlags: 0
  m_CorrespondingSourceObject: {fileID: 0}
  m_PrefabInstance: {fileID: 0}
  m_PrefabAsset: {fileID: 0}
  m_GameObject: {fileID: 1502880893}
  m_LocalRotation: {x: -0, y: -0, z: -0, w: 1}
  m_LocalPosition: {x: 97, y: 2, z: 0}
  m_LocalScale: {x: 75, y: 0.5, z: 75}
  m_Children: []
  m_Father: {fileID: 1493071626}
  m_RootOrder: 1
  m_LocalEulerAnglesHint: {x: 0, y: 0, z: 0}
--- !u!64 &1502880895
MeshCollider:
  m_ObjectHideFlags: 0
  m_CorrespondingSourceObject: {fileID: 0}
  m_PrefabInstance: {fileID: 0}
  m_PrefabAsset: {fileID: 0}
  m_GameObject: {fileID: 1502880893}
  m_Material: {fileID: 0}
  m_IsTrigger: 0
  m_Enabled: 1
  serializedVersion: 4
  m_Convex: 0
  m_CookingOptions: 30
  m_Mesh: {fileID: 10202, guid: 0000000000000000e000000000000000, type: 0}
--- !u!23 &1502880896
MeshRenderer:
  m_ObjectHideFlags: 0
  m_CorrespondingSourceObject: {fileID: 0}
  m_PrefabInstance: {fileID: 0}
  m_PrefabAsset: {fileID: 0}
  m_GameObject: {fileID: 1502880893}
  m_Enabled: 1
  m_CastShadows: 1
  m_ReceiveShadows: 1
  m_DynamicOccludee: 1
  m_MotionVectors: 1
  m_LightProbeUsage: 1
  m_ReflectionProbeUsage: 1
  m_RayTracingMode: 2
  m_RenderingLayerMask: 1
  m_RendererPriority: 0
  m_Materials:
  - {fileID: 2100000, guid: a3519b7198a298e4384f0ecc0f417ab0, type: 2}
  m_StaticBatchInfo:
    firstSubMesh: 0
    subMeshCount: 0
  m_StaticBatchRoot: {fileID: 0}
  m_ProbeAnchor: {fileID: 0}
  m_LightProbeVolumeOverride: {fileID: 0}
  m_ScaleInLightmap: 1
  m_ReceiveGI: 1
  m_PreserveUVs: 0
  m_IgnoreNormalsForChartDetection: 0
  m_ImportantGI: 0
  m_StitchLightmapSeams: 1
  m_SelectedEditorRenderState: 3
  m_MinimumChartSize: 4
  m_AutoUVMaxDistance: 0.5
  m_AutoUVMaxAngle: 89
  m_LightmapParameters: {fileID: 0}
  m_SortingLayerID: 0
  m_SortingLayer: 0
  m_SortingOrder: 0
--- !u!33 &1502880897
MeshFilter:
  m_ObjectHideFlags: 0
  m_CorrespondingSourceObject: {fileID: 0}
  m_PrefabInstance: {fileID: 0}
  m_PrefabAsset: {fileID: 0}
  m_GameObject: {fileID: 1502880893}
  m_Mesh: {fileID: 10202, guid: 0000000000000000e000000000000000, type: 0}
--- !u!4 &1621780919 stripped
Transform:
  m_CorrespondingSourceObject: {fileID: 8569292619521038693, guid: 4fcf18c6e3abdf24290ad344171a2272,
    type: 3}
  m_PrefabInstance: {fileID: 1106670870}
  m_PrefabAsset: {fileID: 0}
--- !u!1 &1698463569
GameObject:
  m_ObjectHideFlags: 0
  m_CorrespondingSourceObject: {fileID: 0}
  m_PrefabInstance: {fileID: 0}
  m_PrefabAsset: {fileID: 0}
  serializedVersion: 6
  m_Component:
  - component: {fileID: 1698463570}
  m_Layer: 0
  m_Name: '||| Controllers |||'
  m_TagString: Untagged
  m_Icon: {fileID: 0}
  m_NavMeshLayer: 0
  m_StaticEditorFlags: 0
  m_IsActive: 1
--- !u!4 &1698463570
Transform:
  m_ObjectHideFlags: 0
  m_CorrespondingSourceObject: {fileID: 0}
  m_PrefabInstance: {fileID: 0}
  m_PrefabAsset: {fileID: 0}
  m_GameObject: {fileID: 1698463569}
  m_LocalRotation: {x: 0, y: 0, z: 0, w: 1}
  m_LocalPosition: {x: 0, y: 0, z: 0}
  m_LocalScale: {x: 1, y: 1, z: 1}
  m_Children:
  - {fileID: 1832142219}
  - {fileID: 2035718578}
  m_Father: {fileID: 0}
  m_RootOrder: 1
  m_LocalEulerAnglesHint: {x: 0, y: 0, z: 0}
--- !u!1 &1832142218
GameObject:
  m_ObjectHideFlags: 0
  m_CorrespondingSourceObject: {fileID: 0}
  m_PrefabInstance: {fileID: 0}
  m_PrefabAsset: {fileID: 0}
  serializedVersion: 6
  m_Component:
  - component: {fileID: 1832142219}
  - component: {fileID: 1832142220}
  m_Layer: 0
  m_Name: Console
  m_TagString: Untagged
  m_Icon: {fileID: 0}
  m_NavMeshLayer: 0
  m_StaticEditorFlags: 0
  m_IsActive: 1
--- !u!4 &1832142219
Transform:
  m_ObjectHideFlags: 0
  m_CorrespondingSourceObject: {fileID: 0}
  m_PrefabInstance: {fileID: 0}
  m_PrefabAsset: {fileID: 0}
  m_GameObject: {fileID: 1832142218}
  m_LocalRotation: {x: -0, y: -0, z: -0, w: 1}
  m_LocalPosition: {x: 0, y: 0, z: 0}
  m_LocalScale: {x: 1, y: 1, z: 1}
  m_Children: []
  m_Father: {fileID: 1698463570}
  m_RootOrder: 0
  m_LocalEulerAnglesHint: {x: 0, y: 0, z: 0}
--- !u!114 &1832142220
MonoBehaviour:
  m_ObjectHideFlags: 0
  m_CorrespondingSourceObject: {fileID: 0}
  m_PrefabInstance: {fileID: 0}
  m_PrefabAsset: {fileID: 0}
  m_GameObject: {fileID: 1832142218}
  m_Enabled: 1
  m_EditorHideFlags: 0
  m_Script: {fileID: 11500000, guid: 967a3d677497b2447b1003f6de506088, type: 3}
  m_Name: 
  m_EditorClassIdentifier: 
--- !u!1 &1876613576
GameObject:
  m_ObjectHideFlags: 0
  m_CorrespondingSourceObject: {fileID: 0}
  m_PrefabInstance: {fileID: 0}
  m_PrefabAsset: {fileID: 0}
  serializedVersion: 6
  m_Component:
  - component: {fileID: 1876613577}
  m_Layer: 0
  m_Name: '||| Enviroment |||'
  m_TagString: Untagged
  m_Icon: {fileID: 0}
  m_NavMeshLayer: 0
  m_StaticEditorFlags: 0
  m_IsActive: 1
--- !u!4 &1876613577
Transform:
  m_ObjectHideFlags: 0
  m_CorrespondingSourceObject: {fileID: 0}
  m_PrefabInstance: {fileID: 0}
  m_PrefabAsset: {fileID: 0}
  m_GameObject: {fileID: 1876613576}
  m_LocalRotation: {x: 0, y: 0, z: 0, w: 1}
  m_LocalPosition: {x: -0.26475525, y: -2.1206198, z: 1.1979704}
  m_LocalScale: {x: 1, y: 1, z: 1}
  m_Children:
  - {fileID: 1105644832}
  - {fileID: 1493071626}
  - {fileID: 8364436340586397068}
  - {fileID: 330031715}
  - {fileID: 741285684}
  m_Father: {fileID: 0}
  m_RootOrder: 2
  m_LocalEulerAnglesHint: {x: 0, y: 0, z: 0}
--- !u!1001 &2035718577
PrefabInstance:
  m_ObjectHideFlags: 0
  serializedVersion: 2
  m_Modification:
    m_TransformParent: {fileID: 1698463570}
    m_Modifications:
    - target: {fileID: 4982672380647865997, guid: dce8b1b987284a24d90b627ef6e3cf18,
        type: 3}
      propertyPath: m_PlayOnAwake
      value: 0
      objectReference: {fileID: 0}
    - target: {fileID: 4982672382026433500, guid: dce8b1b987284a24d90b627ef6e3cf18,
        type: 3}
      propertyPath: sounds.Array.size
      value: 3
      objectReference: {fileID: 0}
    - target: {fileID: 4982672382026433500, guid: dce8b1b987284a24d90b627ef6e3cf18,
        type: 3}
      propertyPath: sounds.Array.data[1].mixerName
      value: 1
      objectReference: {fileID: 0}
    - target: {fileID: 4982672382026433500, guid: dce8b1b987284a24d90b627ef6e3cf18,
        type: 3}
      propertyPath: sounds.Array.data[1].soundClip
      value: 
      objectReference: {fileID: 8300000, guid: dbfe5b08c4565724d92cc3b576ed7a8c, type: 3}
    - target: {fileID: 4982672382026433500, guid: dce8b1b987284a24d90b627ef6e3cf18,
        type: 3}
      propertyPath: sounds.Array.data[1].soundLoop
      value: 1
      objectReference: {fileID: 0}
    - target: {fileID: 4982672382026433500, guid: dce8b1b987284a24d90b627ef6e3cf18,
        type: 3}
      propertyPath: sounds.Array.data[1].soundName
      value: BestSongEvah
      objectReference: {fileID: 0}
    - target: {fileID: 4982672382026433500, guid: dce8b1b987284a24d90b627ef6e3cf18,
        type: 3}
      propertyPath: sounds.Array.data[2].mixerName
      value: 1
      objectReference: {fileID: 0}
    - target: {fileID: 4982672382026433500, guid: dce8b1b987284a24d90b627ef6e3cf18,
        type: 3}
      propertyPath: sounds.Array.data[2].soundClip
      value: 
      objectReference: {fileID: 8300000, guid: 43ef111854d7ae444ac9fba824636cec, type: 3}
    - target: {fileID: 4982672382026433500, guid: dce8b1b987284a24d90b627ef6e3cf18,
        type: 3}
      propertyPath: sounds.Array.data[2].soundLoop
      value: 1
      objectReference: {fileID: 0}
    - target: {fileID: 4982672382026433500, guid: dce8b1b987284a24d90b627ef6e3cf18,
        type: 3}
      propertyPath: sounds.Array.data[2].soundName
      value: background
      objectReference: {fileID: 0}
    - target: {fileID: 4982672382026433500, guid: dce8b1b987284a24d90b627ef6e3cf18,
        type: 3}
      propertyPath: sounds.Array.data[1].soundPitch
      value: 1
      objectReference: {fileID: 0}
    - target: {fileID: 4982672382026433500, guid: dce8b1b987284a24d90b627ef6e3cf18,
        type: 3}
      propertyPath: sounds.Array.data[2].soundPitch
      value: 1
      objectReference: {fileID: 0}
    - target: {fileID: 4982672382026433500, guid: dce8b1b987284a24d90b627ef6e3cf18,
        type: 3}
      propertyPath: sounds.Array.data[1].soundVolume
      value: 1
      objectReference: {fileID: 0}
    - target: {fileID: 4982672382026433500, guid: dce8b1b987284a24d90b627ef6e3cf18,
        type: 3}
      propertyPath: sounds.Array.data[2].soundVolume
      value: 1
      objectReference: {fileID: 0}
    - target: {fileID: 4982672382026433501, guid: dce8b1b987284a24d90b627ef6e3cf18,
        type: 3}
      propertyPath: m_RootOrder
      value: 2
      objectReference: {fileID: 0}
    - target: {fileID: 4982672382026433501, guid: dce8b1b987284a24d90b627ef6e3cf18,
        type: 3}
      propertyPath: m_LocalPosition.x
      value: 0
      objectReference: {fileID: 0}
    - target: {fileID: 4982672382026433501, guid: dce8b1b987284a24d90b627ef6e3cf18,
        type: 3}
      propertyPath: m_LocalPosition.y
      value: 0
      objectReference: {fileID: 0}
    - target: {fileID: 4982672382026433501, guid: dce8b1b987284a24d90b627ef6e3cf18,
        type: 3}
      propertyPath: m_LocalPosition.z
      value: 0
      objectReference: {fileID: 0}
    - target: {fileID: 4982672382026433501, guid: dce8b1b987284a24d90b627ef6e3cf18,
        type: 3}
      propertyPath: m_LocalRotation.w
      value: 1
      objectReference: {fileID: 0}
    - target: {fileID: 4982672382026433501, guid: dce8b1b987284a24d90b627ef6e3cf18,
        type: 3}
      propertyPath: m_LocalRotation.x
      value: -0
      objectReference: {fileID: 0}
    - target: {fileID: 4982672382026433501, guid: dce8b1b987284a24d90b627ef6e3cf18,
        type: 3}
      propertyPath: m_LocalRotation.y
      value: -0
      objectReference: {fileID: 0}
    - target: {fileID: 4982672382026433501, guid: dce8b1b987284a24d90b627ef6e3cf18,
        type: 3}
      propertyPath: m_LocalRotation.z
      value: -0
      objectReference: {fileID: 0}
    - target: {fileID: 4982672382026433501, guid: dce8b1b987284a24d90b627ef6e3cf18,
        type: 3}
      propertyPath: m_LocalEulerAnglesHint.x
      value: 0
      objectReference: {fileID: 0}
    - target: {fileID: 4982672382026433501, guid: dce8b1b987284a24d90b627ef6e3cf18,
        type: 3}
      propertyPath: m_LocalEulerAnglesHint.y
      value: 0
      objectReference: {fileID: 0}
    - target: {fileID: 4982672382026433501, guid: dce8b1b987284a24d90b627ef6e3cf18,
        type: 3}
      propertyPath: m_LocalEulerAnglesHint.z
      value: 0
      objectReference: {fileID: 0}
    - target: {fileID: 4982672382026433503, guid: dce8b1b987284a24d90b627ef6e3cf18,
        type: 3}
      propertyPath: m_Name
      value: ___ SoundManager ___
      objectReference: {fileID: 0}
    m_RemovedComponents: []
  m_SourcePrefab: {fileID: 100100000, guid: dce8b1b987284a24d90b627ef6e3cf18, type: 3}
--- !u!4 &2035718578 stripped
Transform:
  m_CorrespondingSourceObject: {fileID: 4982672382026433501, guid: dce8b1b987284a24d90b627ef6e3cf18,
    type: 3}
  m_PrefabInstance: {fileID: 2035718577}
  m_PrefabAsset: {fileID: 0}
--- !u!4 &46779013995938807 stripped
Transform:
  m_CorrespondingSourceObject: {fileID: 6149225255083053123, guid: 5df7153559b2d5f4dbec406d23738475,
    type: 3}
  m_PrefabInstance: {fileID: 6192553434118214580}
  m_PrefabAsset: {fileID: 0}
--- !u!1001 &473076144557493685
PrefabInstance:
  m_ObjectHideFlags: 0
  serializedVersion: 2
  m_Modification:
    m_TransformParent: {fileID: 756229998}
    m_Modifications:
    - target: {fileID: 3637845738871323267, guid: 61c7e77f541b0694e9d8d05ceabbb53b,
        type: 3}
      propertyPath: m_RootOrder
      value: 4
      objectReference: {fileID: 0}
    - target: {fileID: 3637845738871323267, guid: 61c7e77f541b0694e9d8d05ceabbb53b,
        type: 3}
      propertyPath: m_LocalPosition.x
      value: 7
      objectReference: {fileID: 0}
    - target: {fileID: 3637845738871323267, guid: 61c7e77f541b0694e9d8d05ceabbb53b,
        type: 3}
      propertyPath: m_LocalPosition.y
      value: 1
      objectReference: {fileID: 0}
    - target: {fileID: 3637845738871323267, guid: 61c7e77f541b0694e9d8d05ceabbb53b,
        type: 3}
      propertyPath: m_LocalPosition.z
      value: 35
      objectReference: {fileID: 0}
    - target: {fileID: 3637845738871323267, guid: 61c7e77f541b0694e9d8d05ceabbb53b,
        type: 3}
      propertyPath: m_LocalRotation.w
      value: 1
      objectReference: {fileID: 0}
    - target: {fileID: 3637845738871323267, guid: 61c7e77f541b0694e9d8d05ceabbb53b,
        type: 3}
      propertyPath: m_LocalRotation.x
      value: -0
      objectReference: {fileID: 0}
    - target: {fileID: 3637845738871323267, guid: 61c7e77f541b0694e9d8d05ceabbb53b,
        type: 3}
      propertyPath: m_LocalRotation.y
      value: -0
      objectReference: {fileID: 0}
    - target: {fileID: 3637845738871323267, guid: 61c7e77f541b0694e9d8d05ceabbb53b,
        type: 3}
      propertyPath: m_LocalRotation.z
      value: -0
      objectReference: {fileID: 0}
    - target: {fileID: 3637845738871323267, guid: 61c7e77f541b0694e9d8d05ceabbb53b,
        type: 3}
      propertyPath: m_LocalEulerAnglesHint.x
      value: 0
      objectReference: {fileID: 0}
    - target: {fileID: 3637845738871323267, guid: 61c7e77f541b0694e9d8d05ceabbb53b,
        type: 3}
      propertyPath: m_LocalEulerAnglesHint.y
      value: 0
      objectReference: {fileID: 0}
    - target: {fileID: 3637845738871323267, guid: 61c7e77f541b0694e9d8d05ceabbb53b,
        type: 3}
      propertyPath: m_LocalEulerAnglesHint.z
      value: 0
      objectReference: {fileID: 0}
    - target: {fileID: 4123020996865663033, guid: 61c7e77f541b0694e9d8d05ceabbb53b,
        type: 3}
      propertyPath: m_Name
      value: FireSlime
      objectReference: {fileID: 0}
    m_RemovedComponents: []
  m_SourcePrefab: {fileID: 100100000, guid: 61c7e77f541b0694e9d8d05ceabbb53b, type: 3}
--- !u!1001 &1305534076733639791
PrefabInstance:
  m_ObjectHideFlags: 0
  serializedVersion: 2
  m_Modification:
    m_TransformParent: {fileID: 756229998}
    m_Modifications:
    - target: {fileID: 4675089106812565553, guid: e96619e2efd0c4245b95d391c85dbde6,
        type: 3}
      propertyPath: m_Name
      value: FlyEnemy
      objectReference: {fileID: 0}
    - target: {fileID: 5757465375508457027, guid: e96619e2efd0c4245b95d391c85dbde6,
        type: 3}
      propertyPath: m_RootOrder
      value: 0
      objectReference: {fileID: 0}
    - target: {fileID: 5757465375508457027, guid: e96619e2efd0c4245b95d391c85dbde6,
        type: 3}
      propertyPath: m_LocalPosition.x
      value: 30
      objectReference: {fileID: 0}
    - target: {fileID: 5757465375508457027, guid: e96619e2efd0c4245b95d391c85dbde6,
        type: 3}
      propertyPath: m_LocalPosition.y
      value: 3
      objectReference: {fileID: 0}
    - target: {fileID: 5757465375508457027, guid: e96619e2efd0c4245b95d391c85dbde6,
        type: 3}
      propertyPath: m_LocalPosition.z
      value: -10
      objectReference: {fileID: 0}
    - target: {fileID: 5757465375508457027, guid: e96619e2efd0c4245b95d391c85dbde6,
        type: 3}
      propertyPath: m_LocalRotation.w
      value: 1
      objectReference: {fileID: 0}
    - target: {fileID: 5757465375508457027, guid: e96619e2efd0c4245b95d391c85dbde6,
        type: 3}
      propertyPath: m_LocalRotation.x
      value: -0
      objectReference: {fileID: 0}
    - target: {fileID: 5757465375508457027, guid: e96619e2efd0c4245b95d391c85dbde6,
        type: 3}
      propertyPath: m_LocalRotation.y
      value: -0
      objectReference: {fileID: 0}
    - target: {fileID: 5757465375508457027, guid: e96619e2efd0c4245b95d391c85dbde6,
        type: 3}
      propertyPath: m_LocalRotation.z
      value: -0
      objectReference: {fileID: 0}
    - target: {fileID: 5757465375508457027, guid: e96619e2efd0c4245b95d391c85dbde6,
        type: 3}
      propertyPath: m_LocalEulerAnglesHint.x
      value: 0
      objectReference: {fileID: 0}
    - target: {fileID: 5757465375508457027, guid: e96619e2efd0c4245b95d391c85dbde6,
        type: 3}
      propertyPath: m_LocalEulerAnglesHint.y
      value: 0
      objectReference: {fileID: 0}
    - target: {fileID: 5757465375508457027, guid: e96619e2efd0c4245b95d391c85dbde6,
        type: 3}
      propertyPath: m_LocalEulerAnglesHint.z
      value: 0
      objectReference: {fileID: 0}
    m_RemovedComponents: []
  m_SourcePrefab: {fileID: 100100000, guid: e96619e2efd0c4245b95d391c85dbde6, type: 3}
--- !u!4 &1305534076733639792 stripped
Transform:
  m_CorrespondingSourceObject: {fileID: 5757465375508457027, guid: e96619e2efd0c4245b95d391c85dbde6,
    type: 3}
  m_PrefabInstance: {fileID: 1305534076733639791}
  m_PrefabAsset: {fileID: 0}
--- !u!4 &3813578375740028726 stripped
Transform:
  m_CorrespondingSourceObject: {fileID: 3637845738871323267, guid: 61c7e77f541b0694e9d8d05ceabbb53b,
    type: 3}
  m_PrefabInstance: {fileID: 473076144557493685}
  m_PrefabAsset: {fileID: 0}
--- !u!1001 &6192553434118214580
PrefabInstance:
  m_ObjectHideFlags: 0
  serializedVersion: 2
  m_Modification:
    m_TransformParent: {fileID: 756229998}
    m_Modifications:
    - target: {fileID: 6149225255083053123, guid: 5df7153559b2d5f4dbec406d23738475,
        type: 3}
      propertyPath: m_RootOrder
      value: 3
      objectReference: {fileID: 0}
    - target: {fileID: 6149225255083053123, guid: 5df7153559b2d5f4dbec406d23738475,
        type: 3}
      propertyPath: m_LocalPosition.x
      value: -12
      objectReference: {fileID: 0}
    - target: {fileID: 6149225255083053123, guid: 5df7153559b2d5f4dbec406d23738475,
        type: 3}
      propertyPath: m_LocalPosition.y
      value: 1
      objectReference: {fileID: 0}
    - target: {fileID: 6149225255083053123, guid: 5df7153559b2d5f4dbec406d23738475,
        type: 3}
      propertyPath: m_LocalPosition.z
      value: 0
      objectReference: {fileID: 0}
    - target: {fileID: 6149225255083053123, guid: 5df7153559b2d5f4dbec406d23738475,
        type: 3}
      propertyPath: m_LocalRotation.w
      value: 1
      objectReference: {fileID: 0}
    - target: {fileID: 6149225255083053123, guid: 5df7153559b2d5f4dbec406d23738475,
        type: 3}
      propertyPath: m_LocalRotation.x
      value: -0
      objectReference: {fileID: 0}
    - target: {fileID: 6149225255083053123, guid: 5df7153559b2d5f4dbec406d23738475,
        type: 3}
      propertyPath: m_LocalRotation.y
      value: -0
      objectReference: {fileID: 0}
    - target: {fileID: 6149225255083053123, guid: 5df7153559b2d5f4dbec406d23738475,
        type: 3}
      propertyPath: m_LocalRotation.z
      value: -0
      objectReference: {fileID: 0}
    - target: {fileID: 6149225255083053123, guid: 5df7153559b2d5f4dbec406d23738475,
        type: 3}
      propertyPath: m_LocalEulerAnglesHint.x
      value: 0
      objectReference: {fileID: 0}
    - target: {fileID: 6149225255083053123, guid: 5df7153559b2d5f4dbec406d23738475,
        type: 3}
      propertyPath: m_LocalEulerAnglesHint.y
      value: 0
      objectReference: {fileID: 0}
    - target: {fileID: 6149225255083053123, guid: 5df7153559b2d5f4dbec406d23738475,
        type: 3}
      propertyPath: m_LocalEulerAnglesHint.z
      value: 0
      objectReference: {fileID: 0}
    - target: {fileID: 6781787060973226745, guid: 5df7153559b2d5f4dbec406d23738475,
        type: 3}
      propertyPath: m_Name
      value: ThunderSlime
      objectReference: {fileID: 0}
    m_RemovedComponents: []
  m_SourcePrefab: {fileID: 100100000, guid: 5df7153559b2d5f4dbec406d23738475, type: 3}
--- !u!1001 &8364436340586397067
PrefabInstance:
  m_ObjectHideFlags: 0
  serializedVersion: 2
  m_Modification:
    m_TransformParent: {fileID: 1876613577}
    m_Modifications:
    - target: {fileID: 752147944148598838, guid: 1a7bcf935a82f594f97023dcda1f2f07,
        type: 3}
      propertyPath: sceneToLoad
      value: Assets/Scenes/LevelOne.unity
      objectReference: {fileID: 0}
    - target: {fileID: 6105919395364457426, guid: 1a7bcf935a82f594f97023dcda1f2f07,
        type: 3}
      propertyPath: m_RootOrder
      value: 2
      objectReference: {fileID: 0}
    - target: {fileID: 6105919395364457426, guid: 1a7bcf935a82f594f97023dcda1f2f07,
        type: 3}
      propertyPath: m_LocalPosition.x
      value: 45
      objectReference: {fileID: 0}
    - target: {fileID: 6105919395364457426, guid: 1a7bcf935a82f594f97023dcda1f2f07,
        type: 3}
      propertyPath: m_LocalPosition.y
      value: 3.5
      objectReference: {fileID: 0}
    - target: {fileID: 6105919395364457426, guid: 1a7bcf935a82f594f97023dcda1f2f07,
        type: 3}
      propertyPath: m_LocalPosition.z
      value: 45
      objectReference: {fileID: 0}
    - target: {fileID: 8364436338869325252, guid: 1a7bcf935a82f594f97023dcda1f2f07,
        type: 3}
      propertyPath: Scene
      value: 
      objectReference: {fileID: 0}
    - target: {fileID: 8364436338869325252, guid: 1a7bcf935a82f594f97023dcda1f2f07,
        type: 3}
      propertyPath: menuScene
      value: Assets/Scenes/MainMenu.unity
      objectReference: {fileID: 0}
    - target: {fileID: 8364436338869325252, guid: 1a7bcf935a82f594f97023dcda1f2f07,
        type: 3}
      propertyPath: sceneToLoad
      value: Assets/Scenes/LevelOne.unity
      objectReference: {fileID: 0}
    - target: {fileID: 8364436338869325253, guid: 1a7bcf935a82f594f97023dcda1f2f07,
        type: 3}
      propertyPath: m_Name
      value: Portal
      objectReference: {fileID: 0}
    - target: {fileID: 8364436338869325272, guid: 1a7bcf935a82f594f97023dcda1f2f07,
        type: 3}
      propertyPath: m_RootOrder
      value: 2
      objectReference: {fileID: 0}
    - target: {fileID: 8364436338869325272, guid: 1a7bcf935a82f594f97023dcda1f2f07,
        type: 3}
      propertyPath: m_LocalPosition.x
      value: -34
      objectReference: {fileID: 0}
    - target: {fileID: 8364436338869325272, guid: 1a7bcf935a82f594f97023dcda1f2f07,
        type: 3}
      propertyPath: m_LocalPosition.y
      value: 8
      objectReference: {fileID: 0}
    - target: {fileID: 8364436338869325272, guid: 1a7bcf935a82f594f97023dcda1f2f07,
        type: 3}
      propertyPath: m_LocalPosition.z
      value: 44
      objectReference: {fileID: 0}
    - target: {fileID: 8364436338869325272, guid: 1a7bcf935a82f594f97023dcda1f2f07,
        type: 3}
      propertyPath: m_LocalRotation.w
      value: 1
      objectReference: {fileID: 0}
    - target: {fileID: 8364436338869325272, guid: 1a7bcf935a82f594f97023dcda1f2f07,
        type: 3}
      propertyPath: m_LocalRotation.x
      value: -0
      objectReference: {fileID: 0}
    - target: {fileID: 8364436338869325272, guid: 1a7bcf935a82f594f97023dcda1f2f07,
        type: 3}
      propertyPath: m_LocalRotation.y
      value: -0
      objectReference: {fileID: 0}
    - target: {fileID: 8364436338869325272, guid: 1a7bcf935a82f594f97023dcda1f2f07,
        type: 3}
      propertyPath: m_LocalRotation.z
      value: -0
      objectReference: {fileID: 0}
    - target: {fileID: 8364436338869325272, guid: 1a7bcf935a82f594f97023dcda1f2f07,
        type: 3}
      propertyPath: m_LocalEulerAnglesHint.x
      value: 0
      objectReference: {fileID: 0}
    - target: {fileID: 8364436338869325272, guid: 1a7bcf935a82f594f97023dcda1f2f07,
        type: 3}
      propertyPath: m_LocalEulerAnglesHint.y
      value: 0
      objectReference: {fileID: 0}
    - target: {fileID: 8364436338869325272, guid: 1a7bcf935a82f594f97023dcda1f2f07,
        type: 3}
      propertyPath: m_LocalEulerAnglesHint.z
      value: 0
      objectReference: {fileID: 0}
    - target: {fileID: 8364436340595038417, guid: 1a7bcf935a82f594f97023dcda1f2f07,
        type: 3}
      propertyPath: m_Materials.Array.data[0]
      value: 
      objectReference: {fileID: 0}
    - target: {fileID: 8364436340595038417, guid: 1a7bcf935a82f594f97023dcda1f2f07,
        type: 3}
      propertyPath: m_Materials.Array.data[1]
      value: 
      objectReference: {fileID: 0}
    - target: {fileID: 8364436340595038417, guid: 1a7bcf935a82f594f97023dcda1f2f07,
        type: 3}
      propertyPath: m_Materials.Array.data[2]
      value: 
      objectReference: {fileID: 0}
    m_RemovedComponents: []
  m_SourcePrefab: {fileID: 100100000, guid: 1a7bcf935a82f594f97023dcda1f2f07, type: 3}
--- !u!4 &8364436340586397068 stripped
Transform:
  m_CorrespondingSourceObject: {fileID: 6105919395364457426, guid: 1a7bcf935a82f594f97023dcda1f2f07,
    type: 3}
  m_PrefabInstance: {fileID: 8364436340586397067}
  m_PrefabAsset: {fileID: 0}
